{
  "info": {
    "count": 826,
    "pages": 42,
    "next": "https://rickandmortyapi.com/api/character?page=10",
    "prev": "https://rickandmortyapi.com/api/character?page=8"
  },
  "results": [
    {
      "id": 161,
      "name": "Hydrogen-F",
      "status": "Alive",
      "species": "Alien",
      "type": "Alphabetrian",
      "gender": "Female",
      "origin": { "name": "Alphabetrium", "url": "https://rickandmortyapi.com/api/location/43" },
      "location": { "name": "Alphabetrium", "url": "https://rickandmortyapi.com/api/location/43" },
      "image": "https://rickandmortyapi.com/api/character/avatar/161.jpeg",
      "episode": ["https://rickandmortyapi.com/api/episode/16"],
      "url": "https://rickandmortyapi.com/api/character/161",
      "created": "2017-12-29T16:10:40.290Z"
    },
    {
      "id": 162,
      "name": "Ice-T",
      "status": "Alive",
      "species": "Alien",
      "type": "Alphabetrian",
      "gender": "Male",
      "origin": { "name": "Alphabetrium", "url": "https://rickandmortyapi.com/api/location/43" },
      "location": { "name": "Alphabetrium", "url": "https://rickandmortyapi.com/api/location/43" },
      "image": "https://rickandmortyapi.com/api/character/avatar/162.jpeg",
      "episode": ["https://rickandmortyapi.com/api/episode/16"],
      "url": "https://rickandmortyapi.com/api/character/162",
      "created": "2017-12-29T16:42:59.207Z"
    },
    {
      "id": 163,
      "name": "Ideal Jerry",
      "status": "Dead",
      "species": "Mythological Creature",
      "type": "Mytholog",
      "gender": "Male",
      "origin": { "name": "Nuptia 4", "url": "https://rickandmortyapi.com/api/location/13" },
      "location": { "name": "Nuptia 4", "url": "https://rickandmortyapi.com/api/location/13" },
      "image": "https://rickandmortyapi.com/api/character/avatar/163.jpeg",
      "episode": ["https://rickandmortyapi.com/api/episode/18"],
      "url": "https://rickandmortyapi.com/api/character/163",
      "created": "2017-12-29T16:46:41.345Z"
    },
    {
      "id": 164,
      "name": "Insurance Rick",
      "status": "unknown",
      "species": "Human",
      "type": "",
      "gender": "Male",
      "origin": { "name": "unknown", "url": "" },
      "location": {
        "name": "Citadel of Ricks",
        "url": "https://rickandmortyapi.com/api/location/3"
      },
      "image": "https://rickandmortyapi.com/api/character/avatar/164.jpeg",
      "episode": ["https://rickandmortyapi.com/api/episode/10"],
      "url": "https://rickandmortyapi.com/api/character/164",
      "created": "2017-12-29T17:03:08.645Z"
    },
    {
      "id": 165,
      "name": "Investigator Rick",
      "status": "Dead",
      "species": "Human",
      "type": "",
      "gender": "Male",
      "origin": { "name": "unknown", "url": "" },
      "location": {
        "name": "Citadel of Ricks",
        "url": "https://rickandmortyapi.com/api/location/3"
      },
      "image": "https://rickandmortyapi.com/api/character/avatar/165.jpeg",
      "episode": ["https://rickandmortyapi.com/api/episode/28"],
      "url": "https://rickandmortyapi.com/api/character/165",
      "created": "2017-12-29T17:05:15.514Z"
    },
    {
      "id": 166,
      "name": "Invisi-trooper",
      "status": "Alive",
      "species": "Human",
      "type": "",
      "gender": "Male",
      "origin": {
        "name": "Earth (Replacement Dimension)",
        "url": "https://rickandmortyapi.com/api/location/20"
      },
      "location": {
        "name": "Earth (Replacement Dimension)",
        "url": "https://rickandmortyapi.com/api/location/20"
      },
      "image": "https://rickandmortyapi.com/api/character/avatar/166.jpeg",
      "episode": ["https://rickandmortyapi.com/api/episode/31"],
      "url": "https://rickandmortyapi.com/api/character/166",
      "created": "2017-12-29T17:06:28.325Z"
    },
    {
      "id": 167,
      "name": "Izzy",
      "status": "Alive",
      "species": "Animal",
      "type": "Cat",
      "gender": "unknown",
      "origin": {
        "name": "Earth (Replacement Dimension)",
        "url": "https://rickandmortyapi.com/api/location/20"
      },
      "location": {
        "name": "Earth (Replacement Dimension)",
        "url": "https://rickandmortyapi.com/api/location/20"
      },
      "image": "https://rickandmortyapi.com/api/character/avatar/167.jpeg",
      "episode": ["https://rickandmortyapi.com/api/episode/24"],
      "url": "https://rickandmortyapi.com/api/character/167",
      "created": "2017-12-29T17:07:59.024Z"
    },
    {
      "id": 168,
      "name": "Jackie",
      "status": "Alive",
      "species": "Alien",
      "type": "Gazorpian",
      "gender": "Female",
      "origin": { "name": "Gazorpazorp", "url": "https://rickandmortyapi.com/api/location/40" },
      "location": { "name": "Gazorpazorp", "url": "https://rickandmortyapi.com/api/location/40" },
      "image": "https://rickandmortyapi.com/api/character/avatar/168.jpeg",
      "episode": ["https://rickandmortyapi.com/api/episode/7"],
      "url": "https://rickandmortyapi.com/api/character/168",
      "created": "2017-12-29T17:14:03.430Z"
    },
    {
      "id": 169,
      "name": "Jacob",
      "status": "Alive",
      "species": "Human",
      "type": "",
      "gender": "Male",
      "origin": { "name": "Earth (C-137)", "url": "https://rickandmortyapi.com/api/location/1" },
      "location": { "name": "Earth (C-137)", "url": "https://rickandmortyapi.com/api/location/1" },
      "image": "https://rickandmortyapi.com/api/character/avatar/169.jpeg",
      "episode": [
        "https://rickandmortyapi.com/api/episode/3",
        "https://rickandmortyapi.com/api/episode/15"
      ],
      "url": "https://rickandmortyapi.com/api/character/169",
      "created": "2017-12-29T17:20:52.037Z"
    },
    {
      "id": 170,
      "name": "Jacqueline",
      "status": "Alive",
      "species": "Human",
      "type": "",
      "gender": "Female",
      "origin": {
        "name": "Earth (Replacement Dimension)",
        "url": "https://rickandmortyapi.com/api/location/20"
      },
      "location": {
        "name": "Earth (Replacement Dimension)",
        "url": "https://rickandmortyapi.com/api/location/20"
      },
      "image": "https://rickandmortyapi.com/api/character/avatar/170.jpeg",
      "episode": ["https://rickandmortyapi.com/api/episode/27"],
      "url": "https://rickandmortyapi.com/api/character/170",
      "created": "2017-12-29T17:22:17.707Z"
    },
    {
      "id": 171,
      "name": "Jaguar",
      "status": "Alive",
      "species": "Human",
      "type": "",
      "gender": "Male",
      "origin": {
        "name": "Earth (Replacement Dimension)",
        "url": "https://rickandmortyapi.com/api/location/20"
      },
      "location": {
        "name": "Earth (Replacement Dimension)",
        "url": "https://rickandmortyapi.com/api/location/20"
      },
      "image": "https://rickandmortyapi.com/api/character/avatar/171.jpeg",
      "episode": ["https://rickandmortyapi.com/api/episode/24"],
      "url": "https://rickandmortyapi.com/api/character/171",
      "created": "2017-12-29T17:25:38.138Z"
    },
    {
      "id": 172,
      "name": "Jamey",
      "status": "Alive",
      "species": "Human",
      "type": "",
      "gender": "Male",
      "origin": {
        "name": "Earth (Replacement Dimension)",
        "url": "https://rickandmortyapi.com/api/location/20"
      },
      "location": {
        "name": "Earth (Replacement Dimension)",
        "url": "https://rickandmortyapi.com/api/location/20"
      },
      "image": "https://rickandmortyapi.com/api/character/avatar/172.jpeg",
      "episode": ["https://rickandmortyapi.com/api/episode/16"],
      "url": "https://rickandmortyapi.com/api/character/172",
      "created": "2017-12-29T17:30:20.654Z"
    },
    {
      "id": 173,
      "name": "Jan-Michael Vincent",
      "status": "Alive",
      "species": "Human",
      "type": "",
      "gender": "Male",
      "origin": { "name": "unknown", "url": "" },
      "location": {
        "name": "Interdimensional Cable",
        "url": "https://rickandmortyapi.com/api/location/6"
      },
      "image": "https://rickandmortyapi.com/api/character/avatar/173.jpeg",
      "episode": ["https://rickandmortyapi.com/api/episode/19"],
      "url": "https://rickandmortyapi.com/api/character/173",
      "created": "2017-12-29T17:33:23.972Z"
    },
    {
      "id": 174,
      "name": "Jerry 5-126",
      "status": "Alive",
      "species": "Human",
      "type": "",
      "gender": "Male",
      "origin": { "name": "Earth (5-126)", "url": "https://rickandmortyapi.com/api/location/17" },
      "location": { "name": "Jerryboree", "url": "https://rickandmortyapi.com/api/location/44" },
      "image": "https://rickandmortyapi.com/api/character/avatar/174.jpeg",
      "episode": ["https://rickandmortyapi.com/api/episode/13"],
      "url": "https://rickandmortyapi.com/api/character/174",
      "created": "2017-12-29T17:50:19.991Z"
    },
    {
      "id": 175,
      "name": "Jerry Smith",
      "status": "Alive",
      "species": "Human",
      "type": "",
      "gender": "Male",
      "origin": { "name": "Earth (C-137)", "url": "https://rickandmortyapi.com/api/location/1" },
      "location": { "name": "Earth (C-137)", "url": "https://rickandmortyapi.com/api/location/1" },
      "image": "https://rickandmortyapi.com/api/character/avatar/175.jpeg",
      "episode": [
        "https://rickandmortyapi.com/api/episode/1",
        "https://rickandmortyapi.com/api/episode/2",
        "https://rickandmortyapi.com/api/episode/3",
        "https://rickandmortyapi.com/api/episode/4",
        "https://rickandmortyapi.com/api/episode/5",
        "https://rickandmortyapi.com/api/episode/6",
        "https://rickandmortyapi.com/api/episode/22"
      ],
      "url": "https://rickandmortyapi.com/api/character/175",
      "created": "2017-12-29T18:07:17.610Z"
    },
    {
      "id": 176,
      "name": "Celebrity Jerry",
      "status": "Alive",
      "species": "Human",
      "type": "",
      "gender": "Male",
      "origin": { "name": "Earth (C-500A)", "url": "https://rickandmortyapi.com/api/location/23" },
      "location": {
        "name": "Earth (C-500A)",
        "url": "https://rickandmortyapi.com/api/location/23"
      },
      "image": "https://rickandmortyapi.com/api/character/avatar/176.jpeg",
      "episode": ["https://rickandmortyapi.com/api/episode/8"],
      "url": "https://rickandmortyapi.com/api/character/176",
      "created": "2017-12-29T18:25:11.930Z"
    },
    {
      "id": 177,
      "name": "Jerry Smith",
      "status": "Alive",
      "species": "Human",
      "type": "",
      "gender": "Male",
      "origin": {
        "name": "Earth (Evil Rick's Target Dimension)",
        "url": "https://rickandmortyapi.com/api/location/34"
      },
      "location": {
        "name": "Earth (Evil Rick's Target Dimension)",
        "url": "https://rickandmortyapi.com/api/location/34"
      },
      "image": "https://rickandmortyapi.com/api/character/avatar/177.jpeg",
      "episode": ["https://rickandmortyapi.com/api/episode/10"],
      "url": "https://rickandmortyapi.com/api/character/177",
      "created": "2017-12-29T18:28:19.424Z"
    },
    {
      "id": 178,
      "name": "Jerry's Mytholog",
      "status": "Dead",
      "species": "Mythological Creature",
      "type": "Mytholog",
      "gender": "Male",
      "origin": { "name": "Nuptia 4", "url": "https://rickandmortyapi.com/api/location/13" },
      "location": { "name": "Nuptia 4", "url": "https://rickandmortyapi.com/api/location/13" },
      "image": "https://rickandmortyapi.com/api/character/avatar/178.jpeg",
      "episode": ["https://rickandmortyapi.com/api/episode/18"],
      "url": "https://rickandmortyapi.com/api/character/178",
      "created": "2017-12-29T18:29:31.279Z"
    },
    {
      "id": 179,
      "name": "Jessica",
      "status": "Alive",
      "species": "Cronenberg",
      "type": "",
      "gender": "Female",
      "origin": { "name": "Earth (C-137)", "url": "https://rickandmortyapi.com/api/location/1" },
      "location": { "name": "Earth (C-137)", "url": "https://rickandmortyapi.com/api/location/1" },
      "image": "https://rickandmortyapi.com/api/character/avatar/179.jpeg",
      "episode": [
        "https://rickandmortyapi.com/api/episode/1",
        "https://rickandmortyapi.com/api/episode/4",
        "https://rickandmortyapi.com/api/episode/6"
      ],
      "url": "https://rickandmortyapi.com/api/character/179",
      "created": "2017-12-29T18:34:37.806Z"
    },
    {
      "id": 180,
      "name": "Jessica",
      "status": "Alive",
      "species": "Human",
      "type": "Time God",
      "gender": "Female",
      "origin": {
        "name": "Earth (Replacement Dimension)",
        "url": "https://rickandmortyapi.com/api/location/20"
      },
      "location": {
        "name": "Earth (Replacement Dimension)",
        "url": "https://rickandmortyapi.com/api/location/20"
      },
      "image": "https://rickandmortyapi.com/api/character/avatar/180.jpeg",
      "episode": [
        "https://rickandmortyapi.com/api/episode/11",
        "https://rickandmortyapi.com/api/episode/13",
        "https://rickandmortyapi.com/api/episode/17",
        "https://rickandmortyapi.com/api/episode/18",
        "https://rickandmortyapi.com/api/episode/26",
        "https://rickandmortyapi.com/api/episode/27",
        "https://rickandmortyapi.com/api/episode/28",
        "https://rickandmortyapi.com/api/episode/29",
        "https://rickandmortyapi.com/api/episode/30",
        "https://rickandmortyapi.com/api/episode/32",
        "https://rickandmortyapi.com/api/episode/39",
        "https://rickandmortyapi.com/api/episode/42"
      ],
      "url": "https://rickandmortyapi.com/api/character/180",
      "created": "2017-12-29T18:36:27.225Z"
    }
  ]
}
